counter/counter_to_10_tb.vcd
$date
	Mon Jul 15 22:24:49 2024
$end
$version
	ModelSim Version 10.5b
$end
$timescale
	1ns
$end

$scope module counter_to_10_tb $end
$var parameter 32 ! T $end
$var reg 1 " clk $end
$var reg 1 # reset $end
$var reg 1 $ d $end
$var wire 1 % c $end
$var wire 1 & q [3] $end
$var wire 1 ' q [2] $end
$var wire 1 ( q [1] $end
$var wire 1 ) q [0] $end

$scope module counter $end
$var wire 1 * clk $end
$var wire 1 + reset $end
$var wire 1 , up_down $end
$var reg 1 - carry $end
$var reg 4 . count [3:0] $end
$upscope $end
$upscope $end
$enddefinitions $end
#0
$dumpvars
1"
1#
0$
0-
bx .
b10100 !
0%
x)
x(
x'
x&
0,
1+
1*
$end
#5
0"
0*
#10
1"
1*
b0 .
0)
0(
0'
0&
b1 .
1)
#15
0"
0*
#20
1"
1*
b0 .
0)
b1 .
1)
#25
0"
0*
#30
1"
1*
b0 .
0)
0#
b1 .
0+
1)
#35
0"
0*
#40
1"
1*
b10 .
0)
1(
#45
0"
0*
#50
1"
1*
b11 .
1)
#55
0"
0*
#60
1"
1*
b100 .
0)
0(
1'
#65
0"
0*
#70
1"
1*
b101 .
1)
#75
0"
0*
#80
1"
1*
b110 .
0)
1(
#85
0"
0*
#90
1"
1*
b111 .
1)
#95
0"
0*
#100
1"
1*
b1000 .
0)
0(
0'
1&
#105
0"
0*
#110
1"
1*
b1001 .
1)
#115
0"
0*
#120
1"
1*
b0 .
1-
0)
0&
1%
#125
0"
0*
#130
1"
1*
1#
b1 .
0-
1+
1)
0%
#135
0"
0*
#140
1"
1*
b0 .
0)
0#
1$
b1 .
0+
1,
1)
#145
0"
0*
#150
1"
1*
b0 .
0)
#155
0"
0*
#160
1"
1*
b1001 .
1-
1)
1&
1%
#165
0"
0*
#170
1"
1*
b1000 .
0-
0)
0%
#175
0"
0*
#180
1"
1*
b111 .
1)
1(
1'
0&
#185
0"
0*
#190
1"
1*
b110 .
0)
#195
0"
0*
#200
1"
1*
b101 .
1)
0(
#205
0"
0*
#210
1"
1*
b100 .
0)
#215
0"
0*
#220
1"
1*
b11 .
1)
1(
0'
#225
0"
0*
#230
1"
1*
b10 .
0)
#235
0"
0*
#240
1"
1*
b1 .
1)
0(
#245
0"
0*
#250
1"
1*
0$
b0 .
0,
0)
#255
0"
0*
#260
1"
1*
b1 .
1)
#265
0"
0*
#270
1"
1*
b10 .
0)
1(
#275
0"
0*
#280
1"
1*
b11 .
1)
#285
0"
0*
#290
1"
1*
1$
b100 .
1,
0)
0(
1'
#295
0"
0*
#300
1"
1*
b11 .
1)
1(
0'
#305
0"
0*
#310
1"
1*
0$
b10 .
0,
0)
#315
0"
0*
#320
1"
1*
b11 .
1)
#325
0"
0*
#330
1"
1*
b100 .
0)
0(
1'
#335
0"
0*
#340
1"
1*
b101 .
1)
#345
0"
0*
#350
1"
1*
b110 .
0)
1(
#355
0"
0*
#360
1"
1*
b111 .
1)
#365
0"
0*
#370
1"
1*
1$
b1000 .
1,
0)
0(
0'
1&
#375
0"
0*
#380
1"
1*
b111 .
1)
1(
1'
0&
#385
0"
0*
#390
1"
1*
b110 .
0)
#395
0"
0*
#400
1"
1*
b101 .
1)
0(
#405
0"
0*
#410
1"
1*
b100 .
0)
#415
0"
0*
#420
1"
1*
b11 .
1)
1(
0'
#425
0"
0*
#430
1"
1*
b10 .
0)
#435
0"
0*
#440
1"
1*
b1 .
1)
0(
