FSM/sequence_detector_tb.vcd
$date
	Mon Jul 15 21:22:19 2024
$end
$version
	ModelSim Version 10.5b
$end
$timescale
	10ps
$end

$scope module sequence_detector_tb $end
$var parameter 32 ! T $end
$var reg 1 " clk $end
$var reg 1 # reset $end
$var reg 1 $ w $end
$var wire 1 % z $end

$scope module sq $end
$var parameter 2 & A $end
$var parameter 2 ' B $end
$var parameter 2 ( C $end
$var wire 1 ) clk $end
$var wire 1 * reset $end
$var wire 1 + w $end
$var reg 1 , z $end
$var reg 2 - state_reg [1:0] $end
$var reg 2 . state_next [1:0] $end
$upscope $end
$upscope $end
$enddefinitions $end
#0
$dumpvars
1"
1#
x$
0,
b0 -
bx .
b10100 !
b0 &
b1 '
b10 (
0%
x+
1*
1)
$end
#1000
0"
0$
0)
0+
#2000
1"
1$
1)
1+
b1 .
#3000
0#
0"
0$
0*
0)
0+
#4000
1"
1$
1)
1+
b1 -
b10 .
#5000
0"
0)
#6000
1"
0$
1)
0+
b0 .
b0 -
#7000
0"
1$
0)
1+
b1 .
#8000
1"
1)
b1 -
b10 .
#9000
0"
0)
#10000
1"
0$
1)
0+
b0 .
b0 -
#11000
0"
1$
